…
``` r
read_csv(file = "../data/bi01.csv")
```

    ## Rows: 45 Columns: 5
    ## -- Column specification --------------------------------------------------------
    ## Delimiter: ","
    ## chr (2): fileID, notes
    ## dbl (3): f1, f2, vot
    ## 
    ## i Use `spec()` to retrieve the full column specification for this data.
    ## i Specify the column types or set `show_col_types = FALSE` to quiet this message.

    ## # A tibble: 45 x 5
    ##    fileID        f1    f2   vot notes
    ##    <chr>      <dbl> <dbl> <dbl> <chr>
    ##  1 bi01_kaka   651. 1637.  24.8 <NA> 
    ##  2 bi01_kaka1  714. 1568.  25.5 <NA> 
    ##  3 bi01_kaka2  709. 1560.  28.3 <NA> 
    ##  4 bi01_keke   495. 2168.  31.6 <NA> 
    ##  5 bi01_keke1  893. 2153.  32.4 <NA> 
    ##  6 bi01_keke2  579. 2339.  32.9 <NA> 
    ##  7 bi01_kiki   824. 2712.  18.5 <NA> 
    ##  8 bi01_kiki1  348. 2632.  52.8 <NA> 
    ##  9 bi01_kiki2  494. 2766.  50.5 <NA> 
    ## 10 bi01_koko   499. 1050.  30.9 <NA> 
    ## # ... with 35 more rows
``` r
read_csv(file = "../data/bi02.csv")
```

    ## Rows: 45 Columns: 5
    ## -- Column specification --------------------------------------------------------
    ## Delimiter: ","
    ## chr (1): fileID
    ## dbl (3): f1, f2, vot
    ## lgl (1): notes
    ## 
    ## i Use `spec()` to retrieve the full column specification for this data.
    ## i Specify the column types or set `show_col_types = FALSE` to quiet this message.

    ## # A tibble: 45 x 5
    ##    fileID        f1    f2   vot notes
    ##    <chr>      <dbl> <dbl> <dbl> <lgl>
    ##  1 bi02_kaka   784. 1574.  21.2 NA   
    ##  2 bi02_kaka1  768. 1522.  29.8 NA   
    ##  3 bi02_kaka2  534. 1494.  25.8 NA   
    ##  4 bi02_keke   473. 2186.  23.3 NA   
    ##  5 bi02_keke1  467. 2335.  19.7 NA   
    ##  6 bi02_keke2  527. 2234.  18.9 NA   
    ##  7 bi02_kiki   336. 2625.  28.2 NA   
    ##  8 bi02_kiki1  348. 2693.  19.0 NA   
    ##  9 bi02_kiki2  339. 2661   18.9 NA   
    ## 10 bi02_koko   617.  993.  29.3 NA   
    ## # ... with 35 more rows
``` r
read_csv(file = "../data/bi03.csv")
```

    ## Rows: 45 Columns: 5
    ## -- Column specification --------------------------------------------------------
    ## Delimiter: ","
    ## chr (1): fileID
    ## dbl (3): f1, f2, vot
    ## lgl (1): notes
    ## 
    ## i Use `spec()` to retrieve the full column specification for this data.
    ## i Specify the column types or set `show_col_types = FALSE` to quiet this message.

    ## # A tibble: 45 x 5
    ##    fileID        f1    f2   vot notes
    ##    <chr>      <dbl> <dbl> <dbl> <lgl>
    ##  1 bi03_kaka  1188. 1889.  22.4 NA   
    ##  2 bi03_kaka1  830. 1497.  36.5 NA   
    ##  3 bi03_kaka2  826. 1657.  31.7 NA   
    ##  4 bi03_keke   627. 2397.  23.5 NA   
    ##  5 bi03_keke1  527. 2278.  25.6 NA   
    ##  6 bi03_keke2  403. 2525.  25.2 NA   
    ##  7 bi03_kiki   424. 2669.  38.4 NA   
    ##  8 bi03_kiki1  354. 2694.  32.2 NA   
    ##  9 bi03_kiki2  340. 2683.  29.0 NA   
    ## 10 bi03_koko   468.  858.  31.7 NA   
    ## # ... with 35 more rows
``` r
read_csv(file = "../data/ne01.csv")
```

    ## Rows: 45 Columns: 5
    ## -- Column specification --------------------------------------------------------
    ## Delimiter: ","
    ## chr (1): fileID
    ## dbl (3): f1, f2, vot
    ## lgl (1): notes
    ## 
    ## i Use `spec()` to retrieve the full column specification for this data.
    ## i Specify the column types or set `show_col_types = FALSE` to quiet this message.

    ## # A tibble: 45 x 5
    ##    fileID        f1    f2   vot notes
    ##    <chr>      <dbl> <dbl> <dbl> <lgl>
    ##  1 ne01_kaka   896. 1648.  42.6 NA   
    ##  2 ne01_kaka1  952. 1769.  43.9 NA   
    ##  3 ne01_kaka2 1081. 1744.  31.2 NA   
    ##  4 ne01_keke   466. 2463.  43.5 NA   
    ##  5 ne01_keke1  589. 2500.  37.8 NA   
    ##  6 ne01_keke2  493. 2634.  32.1 NA   
    ##  7 ne01_kiki   353. 2845.  39.0 NA   
    ##  8 ne01_kiki1 1166. 2180.  58.1 NA   
    ##  9 ne01_kiki2  439. 2792.  46.8 NA   
    ## 10 ne01_koko   659. 1075.  52.4 NA   
    ## # ... with 35 more rows
``` r
read_csv(file = "../data/ne02.csv")
```

    ## Rows: 45 Columns: 5
    ## -- Column specification --------------------------------------------------------
    ## Delimiter: ","
    ## chr (1): fileID
    ## dbl (3): f1, f2, vot
    ## lgl (1): notes
    ## 
    ## i Use `spec()` to retrieve the full column specification for this data.
    ## i Specify the column types or set `show_col_types = FALSE` to quiet this message.

    ## # A tibble: 45 x 5
    ##    fileID        f1    f2   vot notes
    ##    <chr>      <dbl> <dbl> <dbl> <lgl>
    ##  1 ne02_kaka   850. 1602.  45.4 NA   
    ##  2 ne02_kaka1  739. 2153.  58.6 NA   
    ##  3 ne02_kaka2 1159. 1629.  47.1 NA   
    ##  4 ne02_keke   480. 2412.  41.4 NA   
    ##  5 ne02_keke1  461. 2459.  51.2 NA   
    ##  6 ne02_keke2  498. 2252.  34.2 NA   
    ##  7 ne02_kiki   357. 2687.  64.9 NA   
    ##  8 ne02_kiki1  344. 2782.  91.0 NA   
    ##  9 ne02_kiki2  333. 2751.  58.0 NA   
    ## 10 ne02_koko   564. 1047.  54.1 NA   
    ## # ... with 35 more rows
``` r
read_csv(file = "../data/ne03.csv")
```

    ## Rows: 45 Columns: 5
    ## -- Column specification --------------------------------------------------------
    ## Delimiter: ","
    ## chr (1): fileID
    ## dbl (3): f1, f2, vot
    ## lgl (1): notes
    ## 
    ## i Use `spec()` to retrieve the full column specification for this data.
    ## i Specify the column types or set `show_col_types = FALSE` to quiet this message.

    ## # A tibble: 45 x 5
    ##    fileID        f1    f2   vot notes
    ##    <chr>      <dbl> <dbl> <dbl> <lgl>
    ##  1 ne03_kaka   794. 1786.  31.9 NA   
    ##  2 ne03_kaka1  837. 1682.  42.1 NA   
    ##  3 ne03_kaka2  879. 1549.  50.8 NA   
    ##  4 ne03_keke   546. 2642.  35.7 NA   
    ##  5 ne03_keke1  569. 1787.  33.9 NA   
    ##  6 ne03_keke2  568. 2484.  44.9 NA   
    ##  7 ne03_kiki   531. 2731.  38.1 NA   
    ##  8 ne03_kiki1  412. 2012.  81.4 NA   
    ##  9 ne03_kiki2  373. 2806.  67.2 NA   
    ## 10 ne03_koko   511. 1071.  53.0 NA   
    ## # ... with 35 more rows
…
